{
  "name": "angular-module-template",
  "version": "1.0.0",
  "description": "Angular Module",
  "main": "index.js",
  "scripts": {
    "transpile": "ngc",
    "package": "rollup -c",
    //Make sure to set module.name below
    "minify": "uglifyjs dist/bundles/module.name.umd.js --screw-ie8 --compress --mangle --comments --output dist/bundles/module.name.umd.min.js",
    "build": "npm run transpile && npm run package && npm run minify"
  },
  "repository": {
    "type": "git",
    "url": "git+ssh://git@bitbucket.org/moses-aronov/angular-module-template.git"
  },
  "author": "Moses Aronov",
  "license": "ISC",
  "homepage": "https://bitbucket.org/moses-aronov/angular-module-template#readme",
  "dependencies": {
    "@angular/common": "^4.0.1",
    "@angular/core": "^4.0.1",
    "reflect-metadata": "^0.1.10",
    "rxjs": "^5.2.0",
    "zone.js": "^0.8.5"
  },
  "devDependencies": {
    "@angular/compiler": "^4.0.1",
    "@angular/compiler-cli": "^4.0.1",
    "rollup": "^0.41.6",
    "typescript": "^2.2.2",
    "uglify-js": "^2.8.20"
  }
}